%YAML 1.1
%TAG !u! tag:unity3d.com,2011:
--- !u!114 &11400000
MonoBehaviour:
  m_ObjectHideFlags: 0
  m_CorrespondingSourceObject: {fileID: 0}
  m_PrefabInternal: {fileID: 0}
  m_GameObject: {fileID: 0}
  m_Enabled: 1
  m_EditorHideFlags: 0
  m_Script: {fileID: 11500000, guid: 54d21f6ece3b46479f0c328f8c6007e0, type: 3}
  m_Name: Lose
  m_EditorClassIdentifier: 
  topLeft: {r: 0.9150943, g: 0.056114297, b: 0.056114297, a: 1}
  topRight: {r: 1, g: 0.7028302, b: 0.7028302, a: 1}
  bottomLeft: {r: 1, g: 0, b: 0, a: 1}
  bottomRight: {r: 1, g: 0, b: 0.30879688, a: 1}
